<?xml version="1.0"?>
<robot xmlns:xacro="http://ros.org/wiki/xacro" name="wamv">
  <xacro:arg name="color" default="red"/>
    <gazebo>
      <gravity>0</gravity>
    </gazebo>

  <link name="base_link">
        <gazebo>
      <gravity>0</gravity>
    </gazebo>

  </link>

  <joint name="dummy_joint" type = "fixed">
    <parent link="base_link"/>
    <child link="dummy_link"/>
  </joint>

  <!-- Basic model of the 16' WAM-V USV -->
  <link name="dummy_link">
    <gazebo>
      <gravity>0</gravity>
    </gazebo>

    <visual>
      <geometry>
        <mesh filename="package://wamv_command/models/WAM-V-Base/mesh/WAM-V-Base_$(arg color).dae"/>
      </geometry>
    </visual>

    <inertial>
      <!-- From WAM-V spec sheet -->
      <mass value="1.0"/>
      <inertia ixx="0.1" ixy="0.0" ixz="0.0" iyy="0.1" iyz="0.0" izz="0.1"/>
    </inertial>
  </link>

  <!--<link name="world"/>
  <joint name="x_axis_joint" type="prismatic">
    <parent link="world"/>
    <child link="base_link"/>
    <axis xyz="1 0 0" />
  </joint>-->

  <gazebo>
    <static>0</static>
  </gazebo>

</robot>
