<?xml version="1.0" ?>
<!-- World containing only sandisland model -->
<sdf version="1.6" xmlns:xacro="http://ros.org/wiki/xacro">
  <world name="sandisland">
    <xacro:include filename="$(find wamv_command)/worlds/wamv_command.xacro" />
    <xacro:wamv_command />
    <!--Waves-->
    <xacro:include filename="$(find wave_gazebo)/world_models/ocean_waves/model.xacro"/>
    <xacro:ocean_waves/>
    <!--Wind for the WAM-V. Note, wind parameters are set in the plug.-->
    <xacro:include filename="$(find vrx_gazebo)/worlds/xacros/usv_wind_plugin.xacro"/>
    <xacro:usv_wind_gazebo>
      <wind_objs>
        <wind_obj>
          <name>wamv</name>
          <link_name>base_link</link_name>
          <coeff_vector>0.5 0.5 0.33</coeff_vector>
        </wind_obj>
      </wind_objs>
    </xacro:usv_wind_gazebo>
  </world>
</sdf>
